import useful;
import geometry;
size(10cm);

pair B = (0, 0);
real phi = pi/6;
pair D = (cos(phi), sin(phi));
pair D1 = (cos(phi), 0);
pair A = 3D;
pair A1 = 3D1;
label("$B$", B, S);
label("$D$", D, NW + W);
label("$A$", A, N);
draw(3.5D -- B -- (4, 0));
label("$C$", (3.5, 0), S);
pair F1 = (sqrt(3), 0);
pair Q1 = (sqrt(3), 2);
label("$F_1$", F1, S);
label("$Q_1$", Q1, N);
draw(circle(A, F1, D));
//label("$1$", B -- D);
//label("$2$", A -- D);
pair O1 = circle(A, F1, D).C;
label("$O_1$", O1, NW);
draw(yscale(2) * (F1 -- O1));
label("$D_1$", D1, S);
label("$D_1$", A1, S);
draw(D -- D1, dashed);
draw(A -- A1, dashed);
