import useful;
import geometry;
size(10cm);

real phi = acos(sqrt(15)/4);
defpoint("A", (0, 0), plain.W);
real l = 4 * sqrt(15);
defpoint("E", (l * cos(phi), l * sin(phi)), plain.N);
defpoint("M", (8, 0), S);
defpoint("N", (30, 0), S);
defpoint("B", A + (E - A) * 1.3, plain.N);
defpoint("C", A + (N - A) * 1.2, plain.E);
draw(A -- B -- C -- cycle);
draw(E -- M);
circle c = circle(M, N, E);
defpoint("O", c.C, plain.S);
draw(O -- E);
draw(O -- M);
draw(c);
clip(A + (-3, 0) -- B + (0, 4) -- C + (4, 0) -- O + (0, -3) -- cycle);
draw(orth(E, A, O, scale = 0.07));
draw_angle(A, C, B);
draw_angle(E, A, M, scale= 0.5);
